^C:\USERS\SYSTEMX\DOWNLOADS\НОВАЯ ПАПКА\JOB\JOB.CPP
C:\USERS\SYSTEMX\DOWNLOADS\Новая папка\JOB\X64\DEBUG\VC143.PDB
C:\USERS\SYSTEMX\DOWNLOADS\Новая папка\JOB\X64\DEBUG\VC143.IDB
C:\USERS\SYSTEMX\DOWNLOADS\Новая папка\JOB\X64\DEBUG\JOB.OBJ
